"City","Population","Definition","Area","Population density (/km²)","Country","Continent","Longitude","Latitude"
"Shanghai",1.7836133E7,"Core districts[6]",2605.8,6845.0,"China","Asia",121.47,31.23
"Istanbul",1.385474E7,"Metropolitan municipality",5343.0,2481.0,"Turkey","Europe/Asia",29.0,41.1
"Karachi",1.2991E7,"City District",3527.0,3683.0,"Pakistan","Asia",67.01,24.86
"Moscow",1.1977988E7,"Federal City",2511.0,4705.0,"Russia","Europe",37.62,55.75
"Tianjin",1.1090314E7,"All districts",7422.0,1494.0,"China","Asia",117.2,39.13
"Guangzhou",1.1070654E7,"All districts[13]",3843.0,2881.0,"China","Asia",113.25,23.12
"Delhi",1.1007835E7,"Municipal Corporation",1397.29,7922.9,"India","Asia",77.21,28.67
"Shenzhen",1.0357938E7,"All districts",1989.0,5201.0,"China","Asia",114.13,22.53
"Jakarta",1.0187595E7,"Special capital district",662.33,15400.0,"Indonesia","Asia",106.83,-6.18
"Tokyo",8967665.0,"23 Special Wards[18]",617.18,14400.0,"Japan","Asia",139.77,35.67
"Mexico City",8873017.0,"Federal District",1485.49,5973.0,"Mexico","North America",-99.14,19.43
"Kinshasa",8754000.0,"City-Province[22]",2016.0,4342.0,"Democratic Republic of the Congo","Africa",15.32,-4.31
"Bangkok",8280925.0,"Administrative area",1568.74,5280.0,"Thailand","Asia",100.5,13.73
"Tehran",8244535.0,"City proper",760.0,10359.0,"Iran","Asia",51.43,35.67
"London",8174100.0,"Greater London[27]",1580.0,4863.0,"United Kingdom","Europe",-0.1,51.52
"Lagos",7937932.0,"Statistical area",999.6,7938.0,"Nigeria","Africa",3.35,6.5
"Lima",7605742.0,"Province[30]",2670.4,2848.0,"Peru","South America",-77.05,-12.07
"Ho Chi Minh City",7521138.0,"Province-level municipality",2095.01,3590.0,"Vietnam","Asia",106.69,10.78
"Dhaka",7000940.0,"City Corporation",360.0,19447.0,"Bangladesh","Asia",90.39,23.7
"Hyderabad",6809970.0,"Municipal Corporation",621.48,10958.0,"India","Asia",78.48,17.4
"Hyderabad",6809970.0,"Municipal Corporation",621.48,10958.0,"India","Asia",68.37,25.38
"Cairo",6758581.0,"Governorate",453.0,17190.0,"Egypt","Africa",31.25,30.06
"Rio de Janeiro",6390290.0,"Municipality",1182.0,5406.0,"Brazil","South America",-43.2,-22.91
"Lahore",6318745.0,"City District",1772.0,3566.0,"Pakistan","Asia",74.35,31.56
"Riyadh",5188286.0,"City proper",800.0,6485.0,"Saudi Arabia","Asia",46.77,24.65
"Singapore",5183700.0,"City State",712.4,7276.0,"Singapore","Asia",103.85,1.3
"Saint Petersburg",5023313.0,"Federal city",1399.0,3480.0,"Russia","Europe",30.32,59.93
"Santiago",5012973.0,"Province[49]",2030.0,2469.0,"Chile","South America",-70.64,-33.46
"Santiago",5012973.0,"Province[49]",2030.0,2469.0,"Chile","South America",-70.69,19.48
"Ankara",4550662.0,"Metropolitan Municipality",2516.0,1551.0,"Turkey","Asia",32.85,39.93
"Surat",4462002.0,"Municipal Corporation",326.515,13666.0,"India","Asia",72.82,21.2
"Alexandria",4110015.0,"Governorate",2680.0,1611.0,"Egypt","Africa",29.95,31.22
"Shenyang",4101197.0,"Core districts",3495.0,1173.0,"China","Asia",123.45,41.8
"Suzhou",4074000.0,"Core districts[56]",1679.2,2426.0,"China","Asia",120.62,31.3
"Johannesburg",3888180.0,"Metropolitan Municipality",1644.96,2364.0,"South Africa","Africa",28.04,-26.19
"Los Angeles",3819702.0,"City proper",1290.0,2940.0,"United States","North America",-118.41,34.11
"Yokohama",3680267.0,"City proper",437.38,8414.0,"Japan","Asia",139.62,35.47
"Abidjan",3660682.0,"Department/District",2119.0,1728.0,"Ivory Coast","Africa",-4.03,5.33
"Berlin",3499879.0,"City state",892.0,3924.0,"Germany","Europe",13.38,52.52
"Cape Town",3497097.0,"Metropolitan Municipality",2454.72,1424.0,"South Africa","Africa",18.46,-33.93
"Durban",3468086.0,"Metropolitan Municipality",2291.89,1513.0,"South Africa","Africa",30.99,-29.87
"Pyongyang",3255388.0,"Direct-controlled municipality",3194.0,1019.0,"North Korea","Asia",125.75,39.02
"Madrid",3213271.0,"Municipality",698.0,4604.0,"Spain","Europe",-3.71,40.42
"Nairobi",3138369.0,"Province",696.0,4509.0,"Kenya","Africa",36.82,-1.29
"Pune",3115431.0,"Municipal Corporation",450.69,6913.0,"India","Asia",73.84,18.53
"Jaipur",3073350.0,"Municipal Corporation",485.0,6337.0,"India","Asia",75.8,26.92
"Casablanca",3027000.0,"City proper",324.0,9342.0,"Morocco","Africa",-7.62,33.6
