INDEX VERSION 1.126+C:\Users\Marco\Desktop\KNIME_FILE\KNIME_W_DEVELOPER\.metadata\.plugins\org.eclipse.jdt.core
3282379802.index
970298089.index
2196919527.index
572172681.index
2205171231.index
1844556664.index
3222254788.index
1468164604.index
4000852628.index
3971495156.index
1403947002.index
644944889.index
908843262.index
3532797560.index
1898847958.index
3383354448.index
3445096722.index
3417986248.index
25027646.index
456942009.index
1470245997.index
2906030852.index
2389346904.index
338077057.index
297135758.index
3518425631.index
193300980.index
3350064378.index
187085342.index
20563600.index
2470892026.index
398040270.index
3064319693.index
87881567.index
2456365496.index
2894742940.index
2206375195.index
1634634300.index
3138971562.index
4210505272.index
3143593197.index
2489080232.index
1810685909.index
1560552094.index
1114448378.index
924763509.index
2677940684.index
1874370599.index
2390758626.index
